11
a,122,195
b,331,124
c,186,127
d,187,270
e,376,202
f,443,119
g,514,199
h,438,267
i,258,198
j,446,222
k,330,268
(a,c,1)
(c,a,1)
(a,d,2)
(d,a,2)
(b,i,3)
(i,b,3)
(c,d,4)
(d,c,4)
(c,i,3)
(i,c,3)
(e,k,2)
(k,e,2)
(e,h,3)
(h,e,3)
(e,j,4)
(j,e,4)
(f,j,7)
(j,f,7)
(f,g,8)
(g,f,8)
(g,j,1)
(j,g,1)
(h,k,2)
(k,h,2)
(i,d,3)
(d,i,3)
(i,k,4)
(k,i,4)


